"unlitgeneric"
{
	"$additive" 1
	"$basetexture" "models/cem/toyota_capaldi/neonorange_outer"
	"$bumpmap" "models/cem/toyota_smith/glass_normal"
	"$envmap" "models/cem/toyota_smith/environment4"
	"$envmaptint" "[1 0.5 0.05]"
	"$model" 1
	"$color2" "[0.2 0.2 0.2]"
	"$nocull" "1"

	"$nodecal" "1"

}

