"VertexlitGeneric"
{
	"$basetexture" "models/cem/toyota_capaldi/wallscaplower"
	"$bumpmap" "models/cem/toyota_smith/metal_normal"
	"$surfaceprop" "Metal"
	"$nodecal" "1"
	"$envmap" "models/cem/toyota_smith/environment"
	"$envmaptint" "[0.5 0.5 0.5]"
	"$color2" "[1.87 1.87 1.87]"

	$phong 					1
	$phongexponent 			75
	$phongboost 			25
	$phongtint 				"[ .35 .35 .35 ]"
	$phongfresnelranges 	"[0.05 0.5 1]"

}
