"VertexlitGeneric"
{
	"$basetexture" "models/doctorwho1200/toyota/2013/windows"
	"$bumpmap" "models/doctorwho1200/toyota/2013/windowsn"
	"$envmap" "models/doctorwho1200/toyota/environment"
	"$envmaptint" "[0.01 0.01 0.01]"
	"$nodecal" "0"
	"$normalmap" "models/doctorwho1200/toyota/2013/windowsn"
	"$selfillum" "0"
	"$selfillummask" "models/doctorwho1200/toyota/white"
	"$surfaceprop" "Glass"
}